…
``` r
anti_join(amyloid_df,baseline_df)
```

    ## Joining with `by = join_by(id)`

    ## # A tibble: 80 × 3
    ##       id years_since_baseline baseline   
    ##    <dbl> <chr>                <chr>      
    ##  1    72 time_0               0.106965463
    ##  2    72 time_2               <NA>       
    ##  3    72 time_4               0.107266218
    ##  4    72 time_6               0.106665207
    ##  5    72 time_8               <NA>       
    ##  6   234 time_0               0.110521689
    ##  7   234 time_2               0.110988335
    ##  8   234 time_4               0.110318671
    ##  9   234 time_6               0.107334344
    ## 10   234 time_8               0.108868811
    ## # ℹ 70 more rows
…
